Enquiry,DocDate,DocTime,BookingNo,DealerCity,DealerState,BranchType,LeadType,PaymentMode,Area,State,City,Pin,ExchangeModel,ExchangeDate,ExchangeAmount,ModelFamily,Make,ModelCode,Color,TotalAmount,ExpectedBookingDate,TestRideOffered,CurrentTwoWheeler,CurrentFourWheeler,OwnershipStatus,MaritalStatus,EducationalQualification,HouseholdIncome,Occupation,DOB,LeadStatus,LeadLostReason,LostToModel,LostRemarks,FinanceCompany,InsuranceCompany,SaleChannel,FollowUpRemarks,FollowUp,FollowUpDate,ActualFollowUpDate,CustomerAge,SourceOfEnquiry,SubSource,FollowUpDone,OverallRating,Style,PickUp,Features,Ridecomfort
DENQ102802014000122,2017-02-06,22:28,VSO102802014000122,SRINAGAR,Jammu & Kashmir,Urban,Walk In,Finance,Bemina,Uttaranchal,Srinagar,190018.0,,,0.0,Discover,2W,00PA19,,49909.35938,,No,,,,,,,,,Lost,Booking cancelled,,Booking Cancelled,,,Showroom,,1st Follow up,7/29/2014 22:28,,0,,,No,0.0,0.0,0.0,0.0,0.0
ENQ102802014000130,2016-05-03,10:12,,SRINAGAR,Jammu & Kashmir,Urban,Walk In,Cash,Fateh Kadal,Uttaranchal,Srinagar,190002.0,,,0.0,Apache,2W,00DH15,,69906.92188,7/31/2014 0:00,No,,,,,,,,,Lost,System Closure,,,,,Showroom,,1st Follow up,7/27/2014 10:09,,0,General Enquiry,,No,0.0,0.0,0.0,0.0,0.0
DENQ102802014000269,2020-09-07,00:00,VSO102802014000268,SRINAGAR,Jammu & Kashmir,Urban,Walk In,Cash,Tulmulla,Uttaranchal,Srinagar,191131.0,,,0.0,Discover,2W,00PA09,,45595.21875,,No,,,,,,,,,Closed,,,,,,Command Area,,1st Follow up,08-01-2014 11:11,,0,,,No,0.0,0.0,0.0,0.0,0.0
